…
This is too many columns for now. Let’s narrow our focus to make it easier to work with.

buck <- buck_raw %>% 
  select(album_release_date, album_release_year, danceability:tempo, time_signature, 
         duration_ms, track_name, album_name, key_mode) 

Summaries of Buck

With this data in hand I’ll make some rapid fire summaries of Buck Owens. These summaries turned out not to be particularly compelling radio material but I’m not going to let that deter me. Taking cue from the spotifyr package, what is Buck’s most common key?

buck %>% 
    count(key_mode, sort = TRUE)

## # A tibble: 22 x 2
##    key_mode     n
##    <chr>    <int>
##  1 G# major   237
##  2 A major    231
##  3 D# major   150
##  4 G major    121
##  5 E major    117
##  6 A# major    96
##  7 F major     90
##  8 C major     83
##  9 D major     75
## 10 F# major    75
## # ... with 12 more rows
…
