…
Normally in this situation my approach would be to do some sort of iterative process over each file (mind you still making use of arrow to read the parquet file):

df_rivs <- list.files(here('data/rivers-data/'), pattern = '*.parquet', recursive = TRUE, full.names = TRUE) %>% 
  map_dfr(read_parquet)

From there we might execute some typical sequence designed to filter our data down to a more manageable size.

df_rivs %>% 
  filter(year(Date) == 2017) %>% 
  filter(Parameter == 'Flow') %>% 
  arrange(Date)

## # A tibble: 238,009 x 5
##    STATION_NUMBER Date       Parameter  Value Symbol
##    <chr>          <date>     <chr>      <dbl> <chr> 
##  1 05AA008        2017-01-01 Flow       1.75  B     
##  2 05AC003        2017-01-01 Flow       0.954 B     
##  3 05AC012        2017-01-01 Flow       0.736 B     
##  4 05AC941        2017-01-01 Flow       1.03  <NA>  
##  5 05AD007        2017-01-01 Flow      24.6   B     
##  6 05AE027        2017-01-01 Flow       4.81  B     
##  7 05AG006        2017-01-01 Flow      24.7   B     
##  8 05AH005        2017-01-01 Flow      NA     <NA>  
##  9 05AH037        2017-01-01 Flow      NA     <NA>  
## 10 05AH044        2017-01-01 Flow      NA     <NA>  
## # ... with 237,999 more rows

What we learned in Neal’s presentation was the magic of the open_dataset function and specifically its ability to map hierarchical directory structure to virtual columns in your data. If we read just one parquet file, it is apparent that there aren’t any province, year or month columns:

read_parquet(here('data/rivers-data/AB/2017/01/rivers.parquet'))

## # A tibble: 2,356 x 5
##    STATION_NUMBER Date       Parameter  Value Symbol
##    <chr>          <date>     <chr>      <dbl> <chr> 
##  1 05AA008        2017-01-01 Flow       1.75  B     
##  2 05AC003        2017-01-01 Flow       0.954 B     
##  3 05AC012        2017-01-01 Flow       0.736 B     
##  4 05AC941        2017-01-01 Flow       1.03  <NA>  
##  5 05AD007        2017-01-01 Flow      24.6   B     
##  6 05AE027        2017-01-01 Flow       4.81  B     
##  7 05AG006        2017-01-01 Flow      24.7   B     
##  8 05AH005        2017-01-01 Flow      NA     <NA>  
##  9 05AH037        2017-01-01 Flow      NA     <NA>  
## 10 05AH044        2017-01-01 Flow      NA     <NA>  
## # ... with 2,346 more rows
…
