sam | science - A short history of me at rstudio::conf 2020
…
Normally in this situation my approach would be to do some sort of iterative process over each file (mind you still making use of arrow to read the parquet file):

df_rivs <- list.files(here('data/rivers-data/'), pattern = '*.parquet', recursive = TRUE, full.names = TRUE) %>% 
  map_dfr(read_parquet)

From there we might execute some typical sequence designed to filter our data down to a more manageable size.

df_rivs %>% 
  filter(year(Date) == 2017) %>% 
  filter(Parameter == 'Flow') %>% 
  arrange(Date)

# A tibble: 309,314 × 5
   STATION_NUMBER Date       Parameter  Value Symbol
   <chr>          <date>     <chr>      <dbl> <chr> 
 1 05AA008        2017-01-01 Flow       1.75  B     
 2 05AA024        2017-01-01 Flow       8.67  <NA>  
 3 05AA035        2017-01-01 Flow       1.56  B     
 4 05AC003        2017-01-01 Flow       0.954 B     
 5 05AC012        2017-01-01 Flow       0.736 B     
 6 05AC941        2017-01-01 Flow       1.03  <NA>  
 7 05AD003        2017-01-01 Flow       3.77  B     
 8 05AD007        2017-01-01 Flow      24.6   B     
 9 05AE027        2017-01-01 Flow       4.81  B     
10 05AG006        2017-01-01 Flow      24.7   B     
# … with 309,304 more rows

What we learned in Neal’s presentation was the magic of the open_dataset function and specifically its ability to map hierarchical directory structure to virtual columns in your data. If we read just one parquet file, it is apparent that there aren’t any province, year or month columns:

read_parquet(here('data/rivers-data/AB/2017/01/rivers.parquet'))

# A tibble: 3,131 × 5
   STATION_NUMBER Date       Parameter  Value Symbol
 * <chr>          <date>     <chr>      <dbl> <chr> 
 1 05AA008        2017-01-01 Flow       1.75  B     
 2 05AA024        2017-01-01 Flow       8.67  <NA>  
 3 05AA035        2017-01-01 Flow       1.56  B     
 4 05AC003        2017-01-01 Flow       0.954 B     
 5 05AC012        2017-01-01 Flow       0.736 B     
 6 05AC941        2017-01-01 Flow       1.03  <NA>  
 7 05AD003        2017-01-01 Flow       3.77  B     
 8 05AD007        2017-01-01 Flow      24.6   B     
 9 05AE027        2017-01-01 Flow       4.81  B     
10 05AG006        2017-01-01 Flow      24.7   B     
# … with 3,121 more rows
…
